regression/tests/instantiation/hierarchy.vcd
$scope module dut_0 $end
$scope module h $end
$scope module and1 $end
$var wire 1 BZ in_a $end
$var wire 1 Ba in_b $end
$var wire 1 BY out $end
$upscope $end
$scope module and2 $end
$var wire 1 Bc in_a $end
$var wire 1 Bd in_b $end
$var wire 1 Bb out $end
$upscope $end
$scope module and3 $end
$var wire 1 Bf in_a $end
$var wire 1 Bg in_b $end
$var wire 1 Be out $end
$upscope $end
$var wire 1 Bv clear $end
$var wire 1 Bx data $end
$var wire 1 Bu int_reset $end
$var wire 1 Bt last_value $end
$var wire 1 Bq new_data $end
$var wire 1 Br next_value $end
$var wire 1 Bo next_value_if_not_cleared $end
$var wire 1 Bp old_data $end
$scope module reg1 $end
$var wire 1 Bj in $end
$var wire 1 Bi int_reset $end
$var wire 1 Bh out $end
$upscope $end
$scope module reg2 $end
$var wire 1 Bn in $end
$var wire 1 Bm int_reset $end
$var wire 1 Bk out $end
$var wire 1 Bl out_b $end
$upscope $end
$var wire 1 Bw store $end
$var wire 1 Bs value $end
$upscope $end
$var wire 1 CD io_reset $end
$var wire 1 CC last_value $end
$var wire 1 CA next_value $end
$var wire 1 CB value $end
$var wire 16 CE vector_input_0 $end
$var wire 16 CF vector_input_1 $end
$var wire 16 Bz vector_output_0 $end
$var wire 16 By vector_output_1 $end
$upscope $end
$scope module test_harness_0 $end
$scope module exec_file $end
$var wire 32 BS index $end
$var wire 32 B reason $end
$scope module test_vectors $end
$var wire 32 E memory__0 $end
$var wire 32 F memory__1 $end
$var wire 32 O memory__10 $end
$var wire 32 P memory__11 $end
$var wire 32 Q memory__12 $end
$var wire 32 R memory__13 $end
$var wire 32 S memory__14 $end
$var wire 32 T memory__15 $end
$var wire 32 U memory__16 $end
$var wire 32 V memory__17 $end
$var wire 32 W memory__18 $end
$var wire 32 X memory__19 $end
$var wire 32 G memory__2 $end
$var wire 32 Y memory__20 $end
$var wire 32 Z memory__21 $end
$var wire 32 a memory__22 $end
$var wire 32 b memory__23 $end
$var wire 32 c memory__24 $end
$var wire 32 d memory__25 $end
$var wire 32 e memory__26 $end
$var wire 32 f memory__27 $end
$var wire 32 g memory__28 $end
$var wire 32 h memory__29 $end
$var wire 32 H memory__3 $end
$var wire 32 i memory__30 $end
$var wire 32 j memory__31 $end
$var wire 32 k memory__32 $end
$var wire 32 l memory__33 $end
$var wire 32 m memory__34 $end
$var wire 32 n memory__35 $end
$var wire 32 o memory__36 $end
$var wire 32 p memory__37 $end
$var wire 32 q memory__38 $end
$var wire 32 r memory__39 $end
$var wire 32 I memory__4 $end
$var wire 32 s memory__40 $end
$var wire 32 t memory__41 $end
$var wire 32 u memory__42 $end
$var wire 32 v memory__43 $end
$var wire 32 w memory__44 $end
$var wire 32 x memory__45 $end
$var wire 32 y memory__46 $end
$var wire 32 z memory__47 $end
$var wire 32 BA memory__48 $end
$var wire 32 BB memory__49 $end
$var wire 32 J memory__5 $end
$var wire 32 BC memory__50 $end
$var wire 32 BD memory__51 $end
$var wire 32 BE memory__52 $end
$var wire 32 BF memory__53 $end
$var wire 32 BG memory__54 $end
$var wire 32 BH memory__55 $end
$var wire 32 BI memory__56 $end
$var wire 32 BJ memory__57 $end
$var wire 32 BK memory__58 $end
$var wire 32 BL memory__59 $end
$var wire 32 K memory__6 $end
$var wire 32 BM memory__60 $end
$var wire 32 BN memory__61 $end
$var wire 32 BO memory__62 $end
$var wire 32 BP memory__63 $end
$var wire 32 L memory__7 $end
$var wire 32 M memory__8 $end
$var wire 32 N memory__9 $end
$upscope $end
$var wire 32 D tv $end
$var wire 32 BQ tv_0 $end
$var wire 32 BR tv_1 $end
$var wire 32 C vector_number $end
$upscope $end
$var wire 1 BV test_reset $end
$var wire 16 BX vector_input_0 $end
$var wire 16 BW vector_input_1 $end
$var wire 16 BU vector_output_0 $end
$var wire 16 BT vector_output_1 $end
$enddefinitions $end
#0
0BZ
0Ba
0BY
1Bc
0Bd
0Bb
1Bf
0Bg
0Be
0Bv
0Bx
1Bu
0Bt
0Bq
0Br
0Bo
0Bp
0Bj
1Bi
0Bh
0Bn
1Bm
0Bk
0Bl
0Bw
0Bs
1CD
0CC
0CA
0CB
b0000000000000000 CE
b0000000000000000 CF
b0000000000000000 Bz
b0000000000000000 By
b00000000000000000000000000000000 BS
b00000000000000000000000000000000 B
b00000000000000000000000000000000 E
b00000000000000000000000000000000 F
b00000000000000000000000000000010 O
b00000000000000000000000000000010 P
b00000000000000000000000000000100 Q
b00000000000000000000000000000001 R
b00000000000000000000000000000110 S
b00000000000000000000000000000000 T
b00000000000000000000000000000100 U
b00000000000000000000000000000100 V
b00000000000000000000000000000100 W
b00000000000000000000000000000110 X
b00000000000000000000000000000000 G
b00000000000000000000000000000010 Y
b00000000000000000000000000000111 Z
b00000000000000000000000000000000 a
b00000000000000000000000000000011 b
b00000000000000000000000000000000 c
b00000000000000000000000000000001 d
b00000000000000000000000000000000 e
b00000000000000000000000000000000 f
b00000000000000000000000000000001 g
b00000000000000000001000000000000 h
b00000000000000000000000000000000 H
b00000000000000000000000000000001 i
b00000000000000000001000000000000 j
b00000000000000000000000000000001 k
b00000000000000000001000000000000 l
b00000000000000000000000000000001 m
b00000000000000000001000000000000 n
b00000000000000000000000000000001 o
b00000000000000000001000000000000 p
b00000000000000000000000000000001 q
b00000000000000000001000000000000 r
b00000000000000000000000000000000 I
b00000000000000000000000000000001 s
b00000000000000000001000000000000 t
b00000000000000000000000000000001 u
b00000000000000000001000000000000 v
b00000000000000000000000000000001 w
b00000000000000000001000000000000 x
b00000000000000000000000000000001 y
b00000000000000000001000000000000 z
b00000000000000000000000000000001 BA
b00000000000000000001000000000000 BB
b00000000000000000000000000000000 J
b00000000000000000000000000000001 BC
b00000000000000000001000000000000 BD
b00000000000000000000000000000001 BE
b00000000000000000001000000000000 BF
b00000000000000000000000000000001 BG
b00000000000000000001000000000000 BH
b00000000000000000000000000000001 BI
b00000000000000000001000000000000 BJ
b00000000000000000000000000000001 BK
b00000000000000000001000000000000 BL
b00000000000000000000000000000110 K
b00000000000000000000000000000001 BM
b00000000000000000001000000000000 BN
b00000000000000000000000000000001 BO
b00000000000000000001000000000000 BP
b00000000000000000000000000000000 L
b00000000000000000000000000000001 M
b00000000000000000000000000000100 N
b00000000000000000000000000000000 D
b00000000000000000000000000000000 BQ
b00000000000000000000000000000000 BR
b00000000000000000000000000000000 C
1BV
b0000000000000000 BX
b0000000000000000 BW
b0000000000000000 BU
b0000000000000000 BT
#2
b00000000000000000000000000000011 BS
#4
b00000000000000000000000000000111 BS
b00000000000000000000000000000001 C
#6
b00000000000000000000000000001011 BS
b00000000000000000000000000000010 C
#7
0Bu
0Bi
0Bm
0CD
0BV
#8
1BZ
1Ba
1BY
0Bc
1Bg
1Be
1Bx
1Bq
1Br
1Bo
1Bj
1Bw
1CA
b0000000000000110 CE
b0000000000000100 Bz
b00000000000000000000000000001111 BS
b00000000000000000000000000000011 C
b0000000000000110 BX
b0000000000000100 BU
#10
0BZ
0Ba
0BY
1Bc
1Bd
1Bb
0Bf
0Be
1Bv
0Bx
0Bq
0Br
1Bp
0Bj
1Bh
1Bn
0Bw
1Bs
0CA
1CB
b0000000000000001 CE
b0000000000000010 Bz
b00000000000000000000000000010011 BS
b00000000000000000000000000000100 BQ
b00000000000000000000000000000100 C
b0000000000000001 BX
b0000000000000010 BU
#12
1BZ
0Bc
0Bd
0Bb
1Bf
0Bg
0Bv
1Bt
0Bo
0Bp
0Bh
0Bn
1Bk
1Bw
0Bs
1CC
0CB
b0000000000000010 CE
b0000000000000001 Bz
b00000000000000000000000000010111 BS
b00000000000000000000000000000010 BQ
b00000000000000000000000000000101 C
b0000000000000010 BX
b0000000000000001 BU
#14
0BZ
1Ba
1Bc
1Bx
0Bt
0Bk
0Bw
0CC
b0000000000000100 CE
b0000000000000000 Bz
b00000000000000000000000000011011 BS
b00000000000000000000000000000001 BQ
b00000000000000000000000000000110 C
b0000000000000100 BX
b0000000000000000 BU
#16
1BZ
1BY
0Bc
1Bg
1Be
1Bq
1Br
1Bo
1Bj
1Bw
1CA
b0000000000000110 CE
b0000000000000100 Bz
b00000000000000000000000000011111 BS
b00000000000000000000000000000000 BQ
b00000000000000000000000000000111 C
b0000000000000110 BX
b0000000000000100 BU
#18
0BZ
0BY
1Bc
1Bd
1Bb
0Bq
1Bp
1Bh
1Bn
0Bw
1Bs
1CB
b0000000000000100 CE
b0000000000000110 Bz
b00000000000000000000000000100011 BS
b00000000000000000000000000000100 BQ
b00000000000000000000000000001000 C
b0000000000000100 BX
b0000000000000110 BU
#20
1Bt
1Bk
1CC
b0000000000000111 Bz
b00000000000000000000000000100111 BS
b00000000000000000000000000000110 BQ
b00000000000000000000000000001001 C
b0000000000000111 BU
#22
1BZ
0Ba
0Bc
0Bb
0Bg
0Be
0Bx
0Br
0Bo
0Bp
0Bj
1Bw
0CA
b0000000000000010 CE
b0000000000000011 Bz
b00000000000000000000000000101011 BS
b00000000000000000000000000000111 BQ
b00000000000000000000000000001010 C
b0000000000000010 BX
b0000000000000011 BU
#24
0BZ
1Bc
0Bd
0Bh
0Bn
0Bw
0Bs
0CB
b0000000000000000 CE
b0000000000000001 Bz
b00000000000000000000000000101111 BS
b00000000000000000000000000000011 BQ
b00000000000000000000000000001011 C
b0000000000000000 BX
b0000000000000001 BU
#26
0Bt
0Bk
0CC
b0000000000000000 Bz
b00000000000000000000000000110011 BS
b00000000000000000000000000000001 BQ
b00000000000000000000000000001100 C
b0000000000000000 BU
#28
b00000000000000000000000000110111 BS
b00000000000000000000000000000000 BQ
b00000000000000000000000000001101 C
