regression/tests/instantiation/hierarchy_struct.vcd
$var wire 16 P vector_input_0 $end
$var wire 16 O vector_input_1 $end
$var wire 16 N vector_output_0 $end
$var wire 16 M vector_output_1 $end
$scope module dut_0 $end
$var wire 1 B in__c $end
$var wire 1 C in__s__x $end
$var wire 1 D in__s__y $end
$var wire 1 J io_reset $end
$var wire 1 G out__c $end
$var wire 1 H out__s__x $end
$var wire 1 I out__s__y $end
$var wire 16 K vector_input_0 $end
$var wire 16 L vector_input_1 $end
$var wire 16 F vector_output_0 $end
$var wire 16 E vector_output_1 $end
$enddefinitions $end
#0
b0000000000000000 P
b0000000000000000 O
b0000000000000000 N
b0000000000000000 M
0B
0C
0D
1J
0G
0H
0I
b0000000000000000 K
b0000000000000000 L
b0000000000000000 F
b0000000000000000 E
#7
0J
#8
b0000000000000110 P
b0000000000000100 N
1C
b0000000000000110 K
b0000000000000100 F
#10
b0000000000000001 P
b0000000000000010 N
0C
1D
1H
b0000000000000001 K
b0000000000000010 F
#12
b0000000000000010 P
b0000000000000001 N
1B
0D
0H
1I
b0000000000000010 K
b0000000000000001 F
#14
b0000000000000100 P
b0000000000000000 N
0B
1G
0I
b0000000000000100 K
b0000000000000000 F
#16
b0000000000000110 P
b0000000000000100 N
1C
0G
b0000000000000110 K
b0000000000000100 F
#18
b0000000000000100 P
b0000000000000110 N
1D
1H
b0000000000000100 K
b0000000000000110 F
#20
b0000000000000111 N
1B
1I
b0000000000000111 F
#22
b0000000000000010 P
b0000000000000011 N
0C
1G
b0000000000000010 K
b0000000000000011 F
#24
b0000000000000000 P
b0000000000000001 N
0D
0H
b0000000000000000 K
b0000000000000001 F
#26
b0000000000000000 N
0B
0I
b0000000000000000 F
#28
0G
